id	title	saison	category	remarque	instructions	image
1	pogne de romans	ahp	Dessert		"Voici une recette très simple (mais très longue) à réaliser si on possède un batteur (ou un robot) utilisant des fouets pour la pâte à pain (en forme d'hélice). ![hélice](https://www.miss-pieces.com/uploads/Medias/20/69/G_pim_2_1551105737.png){: width=100px}

On la prépare en générale de noël jusqu'à Pâques.

- Sortir  le beurre pour le faire ramollir.

##  Préparation du  levain.    
-  Délaier la levure lyophilisée dans l'eau (ou du lait) 1cs de fleur d'oranger et patienter 10 minutes.   
-  Ajouter ensuite 100g de farine , pétrir  et laisser «pousser»  1heure. 

## Préparation.
-  On réalise ensuite la pâte en mélangeant au batteur à hélice , le levain, le reste de farine, les oeufs, le sucre, le reste de la fleur d'oranger.  
 On ajoute ensuite le beurre ramolli.  La pâte doit être lisse et élastique.

- On laisse ensuite reposer la pâte toute la nuit (au minimum 2 heures) dans un endroit frais.

-  Rompre la pâte, la disposer sur une tourtière (ou un plat à tarte) à l'aide d'une pelle  de manière à former une couronne. Tailler légèrement le dessus de la pogne à l'aide de ciseaux. Passer au jaune d'oeuf. Laisser pousser à nouveau pousser 1 heure à la température ambiante.

-  Cuire à four très chaud (thermostat 8, 9) pendant 10 minutes, puis finir la cuisson à four plus doux 10 minutes environ.  
Avec mon four je fais 6 mn à 240°, 6 mn à 220 puis 8 mn à 200°.  
On peut ajouter à cette pogne des pralines (250 gr) pour faire un Saint Genis."	
2	Sanglier	ah	Viande		"Catégories: viande


Mettre mariner la veille le sanglier avec le vin rouge.

Le lendemain faire revenir les tranches de lard, Ajouter alors les
oignons, échalottes, carottes, laurier, persil et le foie.

Ajouter enfin la marinade, le bouillon et faite réduire pendant 40 mn
doucement.

Mixer le tout.

Dans une grande cocotte ajouter un peu de matière grasse et faite
revenir le sanglier une dizaine de minutes.

Ajouter alors la marinade, cuire au four environ deux heures à 180
degrés.

Ajouter le sang et la crème, bien mélanger remettre le sanglier une
10 de minutes au four."	
3	sirop de sureau	p	Boisson		"Mettre les fleurs de sureau dans un récipiant verser l'eau bouillante dessus, ajouter le sucre et l'acide citrique, remuer.
Laisser poser 48 h à couvert (linge de cuisisne) à température ambiante en remuant de temps en temps (le sucre doit être totalement dissout)
Filtrer, porter à ébulition et mettre en bouteille."	
4	vermouth	hp	Boisson		"Couper en tranche les oranges et le citron.

Laisser macérer l'eau de vie, les oranges, le citron, la vanille et
le bâton de gentiane (seulement une petite cuillère à café)  40
jours.

Passer alors cette préparation et ajouter le vin rosée et le sucre.

Bien remuer et mettre en bouteille."	
5	confiture de noix	ah	Dessert		"Cuire les noix dans un peu d'eau 30mn.  Les écraser à la fourchette pour laisser un peu de morceau ou haché si on ne veut pas trouver de morceaux.

Faire un sirop avec le sucre et de l'eau puis cuire avec les les noix 30 mn environ."	